{
  "type": "service_account",
  "project_id": "pc-api-8401522569092390868-776",
  "private_key_id": "c38b6c5b45368ebacf225d54ed83d33585da7336",
  "private_key": "-----BEGIN PRIVATE KEY-----\nMIIEvQIBADANBgkqhkiG9w0BAQEFAASCBKcwggSjAgEAAoIBAQCL7HoHu3HshfGZ\nq5e7qwujmWyV0ux1241wpW6/f3Y5PQzu2DML5FomyTIe2q3PllCLaufgmPlMCWCe\neaJ/5WZpYmuYcVWB+GGftRN3sd++WJtv/xg6a2+a0lW27VNrG74KNVDAUW52Nc9U\nDHo7PNY9Sb066VdW1SwG+feIwrifRfdzujfu98PkXaznEQ8EDTe+ObNQBfBKYS0B\nOC+iSXnzPTGvgZ/D4E7Rz7Ef1soQWhJqq5PAeB0wAvjut2ig9yly2XDjRYPu4vOa\nr3CqMNrg3UQyJt8kHxcnmRiIAHC1ycFz9Ffr00n7maTi5uB+QD/ASlVzG8guZrUa\nlSMtFid7AgMBAAECggEAD5j1Q25kNSr7MxebKurWuc5s+ciQ3lRykFeIoGUrfxbs\nnaVRD2bNm9w6r5DN5kGJyfjJT1KOG6lB8Xh6okomn+G+P7iGgR34d+6d9G5KFDRZ\nY2MqxrxaLQZ8Uo9jCKIHjajCzyVkrF20NljLuVW/Rga1xt7jAwVxSnfL3Z1jKjHe\nwMMQFBX/t6kK4M4lfSpy67b1aV5d/CI++czvVL9d4KBEtrl00dURTmrvDGSfT109\nD/Oqmz/KHe0RfrEcbHkbG04vFszb8+V420w1hqS1HDn+trJf6jZRGczbSDa/MKNC\nkHk1geCaDstrl0d/HDcynywaMGR4yw6RB+arEheI9QKBgQC+5MjFPMERcj+FAzmM\n61+sdtCupFP7naRKhf02D/3uxfrdrNLk9K6r8AN2tCj+m303grmpPVFrzRGg0YPz\nunRuzE1cgu4k6vZ6jTVQM1g/PlWuUVCvX6Tx9IumOuC/weQFm/N+k603twijVcCK\ntn44VHdjyXGN7PtX7FwtMa1jPwKBgQC7pW3aYWdlGjAmCcGqqgjg1BdHNEMNfAnr\nv5VGFFjNfoQ/ed9L6JX5dDrx47oj1UeCHscgrD3cRTzzRXXtbL0E0f079PlhIFzu\nfJxaAi7Nd5B4gZtP3O2rCeEq/PbIb1o5X7Y1w8tQipBTpeLq/+bvG0WbSMAa1tx+\nirENFU04xQKBgGhvJd+yIzX2OQX+A6gyxP7HadeBk2iej9ktgJ/pE9VjfqF0AVS9\nACqUfnCck6jnTBPocsZCA59ka3Z96SCYK0bKgrBP+RU9bmcRhc9Ap9DBu4JIfknT\nm5u7XAMvRvHhk2v2K7pd9G/8tL8XFOVOfbM3krGG7ZblxYQOjUc0XFVlAoGAWYtF\n8tJMbtiiZWR+gJyHhBJx0U7FOKgaa9+OslR/VACtx0S3JBgniVTH1Cph5zud1iAt\n0g+frX906HobHmOnh6dVeskaQBkbf8sDKYilIPOPg5IFtYSt/dLHGqaAdYF9wqdD\n4kA+w358BQ7CTHY1k6CmBMYgti4WJmS0vJOPuCkCgYEAoINovzeZp92GPyZrUthG\nZ9XbNkD3WUkfvChnzc7foQ/NksTLytQZjaaC7pO03iDTyIDwyDvzBkNah5qCVcOF\nfDZd71RqD3dKM8RbBkmFJMgOpNONi+dkwMuOfTo/2x0tlz7gakHJfrTU7GgJ7vzt\nKZYqKFhNHv22TlRmciT98e8=\n-----END PRIVATE KEY-----\n",
  "client_email": "seegma-publisher-662@pc-api-8401522569092390868-776.iam.gserviceaccount.com",
  "client_id": "109159176038388622656",
  "auth_uri": "https://accounts.google.com/o/oauth2/auth",
  "token_uri": "https://oauth2.googleapis.com/token",
  "auth_provider_x509_cert_url": "https://www.googleapis.com/oauth2/v1/certs",
  "client_x509_cert_url": "https://www.googleapis.com/robot/v1/metadata/x509/seegma-publisher-662%40pc-api-8401522569092390868-776.iam.gserviceaccount.com"
}
